---
http_interactions:
- request:
    method: get
    uri: https://www.flickr.com/services/rest/?api_key=9ffb86ce387f4a4200e1c1e4ae24aee8&format=json&method=flickr.photos.search&nojsoncallback=1&per_page=1&text=denver,co%20skyline
    body:
      encoding: US-ASCII
      string: ''
    headers:
      User-Agent:
      - Faraday v1.4.1
      Accept-Encoding:
      - gzip;q=1.0,deflate;q=0.6,identity;q=0.3
      Accept:
      - "*/*"
  response:
    status:
      code: 200
      message: OK
    headers:
      Content-Type:
      - application/json
      Content-Length:
      - '306'
      Connection:
      - keep-alive
      Date:
      - Tue, 27 Apr 2021 23:12:09 GMT
      Server:
      - Apache/2.4.46 (Ubuntu)
      Set-Cookie:
      - ccc=%7B%22needsConsent%22%3Afalse%2C%22managed%22%3A0%2C%22changed%22%3A0%2C%22info%22%3A%7B%22cookieBlock%22%3A%7B%22level%22%3A0%2C%22blockRan%22%3A0%7D%7D%7D;
        expires=Thu, 27-May-2021 23:12:08 GMT; Max-Age=2592000; path=/; domain=.flickr.com
      X-Content-Type-Options:
      - nosniff
      X-Frame-Options:
      - SAMEORIGIN
      X-Cache:
      - Miss from cloudfront
      Via:
      - 1.1 c4fb40b7909e4dd897bba2e297b284e7.cloudfront.net (CloudFront)
      X-Amz-Cf-Pop:
      - DEN50-C2
      X-Amz-Cf-Id:
      - HdOCJHPKRF286RoaBPFBIk7QmAJrOVGWyk0F8QgzE-AUdz7oaZ0mMQ==
    body:
      encoding: UTF-8
      string: '{"photos":{"page":1,"pages":753,"perpage":1,"total":"753","photo":[{"id":"49739448673","owner":"56683178@N06","secret":"ae6c7cea05","server":"65535","farm":66,"title":"BNSF
        1789 Southside Switching Trk. 20 BNSF 31st St Yard Denver, CO March 18, 2020.","ispublic":1,"isfriend":0,"isfamily":0}]},"stat":"ok"}'
  recorded_at: Tue, 27 Apr 2021 23:12:08 GMT
recorded_with: VCR 6.0.0
