---
http_interactions:
- request:
    method: get
    uri: https://www.flickr.com/services/rest/?api_key=9ffb86ce387f4a4200e1c1e4ae24aee8&format=json&method=flickr.photos.search&nojsoncallback=1&per_page=1&text=Denver,Co%20skyline
    body:
      encoding: US-ASCII
      string: ''
    headers:
      User-Agent:
      - Faraday v1.4.1
      Accept-Encoding:
      - gzip;q=1.0,deflate;q=0.6,identity;q=0.3
      Accept:
      - "*/*"
  response:
    status:
      code: 200
      message: OK
    headers:
      Content-Type:
      - application/json
      Content-Length:
      - '306'
      Connection:
      - keep-alive
      Date:
      - Tue, 27 Apr 2021 23:12:04 GMT
      Server:
      - Apache/2.4.46 (Ubuntu)
      Set-Cookie:
      - ccc=%7B%22needsConsent%22%3Afalse%2C%22managed%22%3A0%2C%22changed%22%3A0%2C%22info%22%3A%7B%22cookieBlock%22%3A%7B%22level%22%3A0%2C%22blockRan%22%3A0%7D%7D%7D;
        expires=Thu, 27-May-2021 23:12:04 GMT; Max-Age=2592000; path=/; domain=.flickr.com
      X-Content-Type-Options:
      - nosniff
      X-Frame-Options:
      - SAMEORIGIN
      X-Cache:
      - Miss from cloudfront
      Via:
      - 1.1 e7ff4a714a3b1f464db9c76ee954a565.cloudfront.net (CloudFront)
      X-Amz-Cf-Pop:
      - DEN50-C2
      X-Amz-Cf-Id:
      - mdTzaNodVjqNTF1NEt5thxC2AF3P67X4oT97tn0_rMEuIrQhqxGhDQ==
    body:
      encoding: UTF-8
      string: '{"photos":{"page":1,"pages":753,"perpage":1,"total":"753","photo":[{"id":"49739448673","owner":"56683178@N06","secret":"ae6c7cea05","server":"65535","farm":66,"title":"BNSF
        1789 Southside Switching Trk. 20 BNSF 31st St Yard Denver, CO March 18, 2020.","ispublic":1,"isfriend":0,"isfamily":0}]},"stat":"ok"}'
  recorded_at: Tue, 27 Apr 2021 23:12:04 GMT
- request:
    method: get
    uri: https://www.flickr.com/services/rest/?api_key=9ffb86ce387f4a4200e1c1e4ae24aee8&format=json&method=flickr.photos.getInfo&nojsoncallback=1&photo_id=49739448673
    body:
      encoding: US-ASCII
      string: ''
    headers:
      User-Agent:
      - Faraday v1.4.1
      Accept-Encoding:
      - gzip;q=1.0,deflate;q=0.6,identity;q=0.3
      Accept:
      - "*/*"
  response:
    status:
      code: 200
      message: OK
    headers:
      Content-Type:
      - application/json
      Transfer-Encoding:
      - chunked
      Connection:
      - keep-alive
      Vary:
      - Accept-Encoding
      Date:
      - Tue, 27 Apr 2021 23:12:05 GMT
      Server:
      - Apache/2.4.46 (Ubuntu)
      Set-Cookie:
      - ccc=%7B%22needsConsent%22%3Afalse%2C%22managed%22%3A0%2C%22changed%22%3A0%2C%22info%22%3A%7B%22cookieBlock%22%3A%7B%22level%22%3A0%2C%22blockRan%22%3A0%7D%7D%7D;
        expires=Thu, 27-May-2021 23:12:05 GMT; Max-Age=2592000; path=/; domain=.flickr.com
      X-Content-Type-Options:
      - nosniff
      X-Frame-Options:
      - SAMEORIGIN
      X-Cache:
      - Miss from cloudfront
      Via:
      - 1.1 ed8294655bb258e13bfb027c25483ddb.cloudfront.net (CloudFront)
      X-Amz-Cf-Pop:
      - DEN50-C2
      X-Amz-Cf-Id:
      - UE37lltNkUctqyMyORR01nQywf_4GR7kbWxNH9LkCUPNtS_CrhnQFg==
    body:
      encoding: ASCII-8BIT
      string: '{"photo":{"id":"49739448673","secret":"ae6c7cea05","server":"65535","farm":66,"dateuploaded":"1586119906","isfavorite":0,"license":"0","safety_level":"0","rotation":0,"originalsecret":"5f93659eaa","originalformat":"jpg","owner":{"nsid":"56683178@N06","username":"blupenny99","realname":"tom
        byrnas","location":"Brighton, CO, USA","iconserver":"65535","iconfarm":66,"path_alias":"20tcb10"},"title":{"_content":"BNSF
        1789 Southside Switching Trk. 20 BNSF 31st St Yard Denver, CO March 18, 2020."},"description":{"_content":"The
        Pikes Peak Local waits for the Southside to get out of our way.  And they
        stole our motors (1789 and 1675) leaving us with some junk power.  The conductor
        and brakeman are discussing the day''s activities or possibly the Covid19
        virus.  Rumors were flying concerning the local and it is on borrowed time,
        eventually being abolished April 17, 2020."},"visibility":{"ispublic":1,"isfriend":0,"isfamily":0},"dates":{"posted":"1586119906","taken":"2020-03-18
        09:06:39","takengranularity":"0","takenunknown":"0","lastupdate":"1616500792"},"views":"128","editability":{"cancomment":0,"canaddmeta":0},"publiceditability":{"cancomment":1,"canaddmeta":0},"usage":{"candownload":1,"canblog":0,"canprint":0,"canshare":0},"comments":{"_content":"0"},"notes":{"note":[]},"people":{"haspeople":0},"tags":{"tag":[{"id":"56637856-49739448673-58228","author":"56683178@N06","authorname":"blupenny99","raw":"BNSF","_content":"bnsf","machine_tag":0},{"id":"56637856-49739448673-408384742","author":"56683178@N06","authorname":"blupenny99","raw":"Burlington
        Northern Santa Fe Rwy","_content":"burlingtonnorthernsantaferwy","machine_tag":0},{"id":"56637856-49739448673-85148","author":"56683178@N06","authorname":"blupenny99","raw":"Denver,
        CO","_content":"denverco","machine_tag":0},{"id":"56637856-49739448673-3157","author":"56683178@N06","authorname":"blupenny99","raw":"Colorado","_content":"colorado","machine_tag":0},{"id":"56637856-49739448673-8854","author":"56683178@N06","authorname":"blupenny99","raw":"Trains","_content":"trains","machine_tag":0},{"id":"56637856-49739448673-92338","author":"56683178@N06","authorname":"blupenny99","raw":"Railroads","_content":"railroads","machine_tag":0},{"id":"56637856-49739448673-1294","author":"56683178@N06","authorname":"blupenny99","raw":"Yard","_content":"yard","machine_tag":0},{"id":"56637856-49739448673-1147","author":"56683178@N06","authorname":"blupenny99","raw":"Skyline","_content":"skyline","machine_tag":0}]},"urls":{"url":[{"type":"photopage","_content":"https:\/\/www.flickr.com\/photos\/20tcb10\/49739448673\/"}]},"media":"photo"},"stat":"ok"}'
  recorded_at: Tue, 27 Apr 2021 23:12:05 GMT
- request:
    method: get
    uri: https://www.flickr.com/services/rest/?api_key=9ffb86ce387f4a4200e1c1e4ae24aee8&format=json&method=flickr.photos.search&nojsoncallback=1&per_page=1&text=Denver,Co%20skyline
    body:
      encoding: US-ASCII
      string: ''
    headers:
      User-Agent:
      - Faraday v1.4.1
      Accept-Encoding:
      - gzip;q=1.0,deflate;q=0.6,identity;q=0.3
      Accept:
      - "*/*"
  response:
    status:
      code: 200
      message: OK
    headers:
      Content-Type:
      - application/json
      Content-Length:
      - '306'
      Connection:
      - keep-alive
      Date:
      - Tue, 27 Apr 2021 23:12:05 GMT
      Server:
      - Apache/2.4.46 (Ubuntu)
      Set-Cookie:
      - ccc=%7B%22needsConsent%22%3Afalse%2C%22managed%22%3A0%2C%22changed%22%3A0%2C%22info%22%3A%7B%22cookieBlock%22%3A%7B%22level%22%3A0%2C%22blockRan%22%3A0%7D%7D%7D;
        expires=Thu, 27-May-2021 23:12:05 GMT; Max-Age=2592000; path=/; domain=.flickr.com
      X-Content-Type-Options:
      - nosniff
      X-Frame-Options:
      - SAMEORIGIN
      X-Cache:
      - Miss from cloudfront
      Via:
      - 1.1 b7f0c5734a286f56595c1e1b456020a2.cloudfront.net (CloudFront)
      X-Amz-Cf-Pop:
      - DEN50-C2
      X-Amz-Cf-Id:
      - fancNyKvqfE3lAiPPlCTuAYxKRw1baDJtoBUGD8CBHVqeiM76Zcy-w==
    body:
      encoding: UTF-8
      string: '{"photos":{"page":1,"pages":753,"perpage":1,"total":"753","photo":[{"id":"49739448673","owner":"56683178@N06","secret":"ae6c7cea05","server":"65535","farm":66,"title":"BNSF
        1789 Southside Switching Trk. 20 BNSF 31st St Yard Denver, CO March 18, 2020.","ispublic":1,"isfriend":0,"isfamily":0}]},"stat":"ok"}'
  recorded_at: Tue, 27 Apr 2021 23:12:05 GMT
- request:
    method: get
    uri: https://www.flickr.com/services/rest/?api_key=9ffb86ce387f4a4200e1c1e4ae24aee8&format=json&method=flickr.photos.getInfo&nojsoncallback=1&photo_id=49739448673
    body:
      encoding: US-ASCII
      string: ''
    headers:
      User-Agent:
      - Faraday v1.4.1
      Accept-Encoding:
      - gzip;q=1.0,deflate;q=0.6,identity;q=0.3
      Accept:
      - "*/*"
  response:
    status:
      code: 200
      message: OK
    headers:
      Content-Type:
      - application/json
      Transfer-Encoding:
      - chunked
      Connection:
      - keep-alive
      Vary:
      - Accept-Encoding
      Date:
      - Tue, 27 Apr 2021 23:12:05 GMT
      Server:
      - Apache/2.4.46 (Ubuntu)
      Set-Cookie:
      - ccc=%7B%22needsConsent%22%3Afalse%2C%22managed%22%3A0%2C%22changed%22%3A0%2C%22info%22%3A%7B%22cookieBlock%22%3A%7B%22level%22%3A0%2C%22blockRan%22%3A0%7D%7D%7D;
        expires=Thu, 27-May-2021 23:12:05 GMT; Max-Age=2592000; path=/; domain=.flickr.com
      X-Content-Type-Options:
      - nosniff
      X-Frame-Options:
      - SAMEORIGIN
      X-Cache:
      - Miss from cloudfront
      Via:
      - 1.1 e158a5cd644f102abc630a9f56b59d78.cloudfront.net (CloudFront)
      X-Amz-Cf-Pop:
      - DEN50-C2
      X-Amz-Cf-Id:
      - tEhfG3W_54mipCZtwbOg5ib2x38GNN65MO9wAf-8nikSDdvNoMdOiA==
    body:
      encoding: ASCII-8BIT
      string: '{"photo":{"id":"49739448673","secret":"ae6c7cea05","server":"65535","farm":66,"dateuploaded":"1586119906","isfavorite":0,"license":"0","safety_level":"0","rotation":0,"originalsecret":"5f93659eaa","originalformat":"jpg","owner":{"nsid":"56683178@N06","username":"blupenny99","realname":"tom
        byrnas","location":"Brighton, CO, USA","iconserver":"65535","iconfarm":66,"path_alias":"20tcb10"},"title":{"_content":"BNSF
        1789 Southside Switching Trk. 20 BNSF 31st St Yard Denver, CO March 18, 2020."},"description":{"_content":"The
        Pikes Peak Local waits for the Southside to get out of our way.  And they
        stole our motors (1789 and 1675) leaving us with some junk power.  The conductor
        and brakeman are discussing the day''s activities or possibly the Covid19
        virus.  Rumors were flying concerning the local and it is on borrowed time,
        eventually being abolished April 17, 2020."},"visibility":{"ispublic":1,"isfriend":0,"isfamily":0},"dates":{"posted":"1586119906","taken":"2020-03-18
        09:06:39","takengranularity":"0","takenunknown":"0","lastupdate":"1616500792"},"views":"128","editability":{"cancomment":0,"canaddmeta":0},"publiceditability":{"cancomment":1,"canaddmeta":0},"usage":{"candownload":1,"canblog":0,"canprint":0,"canshare":0},"comments":{"_content":"0"},"notes":{"note":[]},"people":{"haspeople":0},"tags":{"tag":[{"id":"56637856-49739448673-58228","author":"56683178@N06","authorname":"blupenny99","raw":"BNSF","_content":"bnsf","machine_tag":0},{"id":"56637856-49739448673-408384742","author":"56683178@N06","authorname":"blupenny99","raw":"Burlington
        Northern Santa Fe Rwy","_content":"burlingtonnorthernsantaferwy","machine_tag":0},{"id":"56637856-49739448673-85148","author":"56683178@N06","authorname":"blupenny99","raw":"Denver,
        CO","_content":"denverco","machine_tag":0},{"id":"56637856-49739448673-3157","author":"56683178@N06","authorname":"blupenny99","raw":"Colorado","_content":"colorado","machine_tag":0},{"id":"56637856-49739448673-8854","author":"56683178@N06","authorname":"blupenny99","raw":"Trains","_content":"trains","machine_tag":0},{"id":"56637856-49739448673-92338","author":"56683178@N06","authorname":"blupenny99","raw":"Railroads","_content":"railroads","machine_tag":0},{"id":"56637856-49739448673-1294","author":"56683178@N06","authorname":"blupenny99","raw":"Yard","_content":"yard","machine_tag":0},{"id":"56637856-49739448673-1147","author":"56683178@N06","authorname":"blupenny99","raw":"Skyline","_content":"skyline","machine_tag":0}]},"urls":{"url":[{"type":"photopage","_content":"https:\/\/www.flickr.com\/photos\/20tcb10\/49739448673\/"}]},"media":"photo"},"stat":"ok"}'
  recorded_at: Tue, 27 Apr 2021 23:12:05 GMT
- request:
    method: get
    uri: https://www.flickr.com/services/rest/?api_key=9ffb86ce387f4a4200e1c1e4ae24aee8&format=json&method=flickr.photos.search&nojsoncallback=1&per_page=1&text=denver,co%20skyline
    body:
      encoding: US-ASCII
      string: ''
    headers:
      User-Agent:
      - Faraday v1.4.1
      Accept-Encoding:
      - gzip;q=1.0,deflate;q=0.6,identity;q=0.3
      Accept:
      - "*/*"
  response:
    status:
      code: 200
      message: OK
    headers:
      Content-Type:
      - application/json
      Content-Length:
      - '306'
      Connection:
      - keep-alive
      Date:
      - Tue, 27 Apr 2021 23:12:05 GMT
      Server:
      - Apache/2.4.46 (Ubuntu)
      Set-Cookie:
      - ccc=%7B%22needsConsent%22%3Afalse%2C%22managed%22%3A0%2C%22changed%22%3A0%2C%22info%22%3A%7B%22cookieBlock%22%3A%7B%22level%22%3A0%2C%22blockRan%22%3A0%7D%7D%7D;
        expires=Thu, 27-May-2021 23:12:05 GMT; Max-Age=2592000; path=/; domain=.flickr.com
      X-Content-Type-Options:
      - nosniff
      X-Frame-Options:
      - SAMEORIGIN
      X-Cache:
      - Miss from cloudfront
      Via:
      - 1.1 b2e880ac67c1fba390623b9fc04bd63a.cloudfront.net (CloudFront)
      X-Amz-Cf-Pop:
      - DEN50-C2
      X-Amz-Cf-Id:
      - r5J3XlHeg2GhXSzfO23vuVjYgWT2cCB1tvEPZKVSc5glGJ3MER1QUg==
    body:
      encoding: UTF-8
      string: '{"photos":{"page":1,"pages":753,"perpage":1,"total":"753","photo":[{"id":"49739448673","owner":"56683178@N06","secret":"ae6c7cea05","server":"65535","farm":66,"title":"BNSF
        1789 Southside Switching Trk. 20 BNSF 31st St Yard Denver, CO March 18, 2020.","ispublic":1,"isfriend":0,"isfamily":0}]},"stat":"ok"}'
  recorded_at: Tue, 27 Apr 2021 23:12:05 GMT
- request:
    method: get
    uri: https://www.flickr.com/services/rest/?api_key=9ffb86ce387f4a4200e1c1e4ae24aee8&format=json&method=flickr.photos.getInfo&nojsoncallback=1&photo_id=49739448673
    body:
      encoding: US-ASCII
      string: ''
    headers:
      User-Agent:
      - Faraday v1.4.1
      Accept-Encoding:
      - gzip;q=1.0,deflate;q=0.6,identity;q=0.3
      Accept:
      - "*/*"
  response:
    status:
      code: 200
      message: OK
    headers:
      Content-Type:
      - application/json
      Transfer-Encoding:
      - chunked
      Connection:
      - keep-alive
      Vary:
      - Accept-Encoding
      Date:
      - Tue, 27 Apr 2021 23:12:05 GMT
      Server:
      - Apache/2.4.46 (Ubuntu)
      Set-Cookie:
      - ccc=%7B%22needsConsent%22%3Afalse%2C%22managed%22%3A0%2C%22changed%22%3A0%2C%22info%22%3A%7B%22cookieBlock%22%3A%7B%22level%22%3A0%2C%22blockRan%22%3A0%7D%7D%7D;
        expires=Thu, 27-May-2021 23:12:05 GMT; Max-Age=2592000; path=/; domain=.flickr.com
      X-Content-Type-Options:
      - nosniff
      X-Frame-Options:
      - SAMEORIGIN
      X-Cache:
      - Miss from cloudfront
      Via:
      - 1.1 7d885ba806a1846198f8b666005bec93.cloudfront.net (CloudFront)
      X-Amz-Cf-Pop:
      - DEN50-C2
      X-Amz-Cf-Id:
      - kPm_Z06MT88kmMNJ38q1Jgv625b7o2yrIx2Pv1qwA4X5adCdmI_Png==
    body:
      encoding: ASCII-8BIT
      string: '{"photo":{"id":"49739448673","secret":"ae6c7cea05","server":"65535","farm":66,"dateuploaded":"1586119906","isfavorite":0,"license":"0","safety_level":"0","rotation":0,"originalsecret":"5f93659eaa","originalformat":"jpg","owner":{"nsid":"56683178@N06","username":"blupenny99","realname":"tom
        byrnas","location":"Brighton, CO, USA","iconserver":"65535","iconfarm":66,"path_alias":"20tcb10"},"title":{"_content":"BNSF
        1789 Southside Switching Trk. 20 BNSF 31st St Yard Denver, CO March 18, 2020."},"description":{"_content":"The
        Pikes Peak Local waits for the Southside to get out of our way.  And they
        stole our motors (1789 and 1675) leaving us with some junk power.  The conductor
        and brakeman are discussing the day''s activities or possibly the Covid19
        virus.  Rumors were flying concerning the local and it is on borrowed time,
        eventually being abolished April 17, 2020."},"visibility":{"ispublic":1,"isfriend":0,"isfamily":0},"dates":{"posted":"1586119906","taken":"2020-03-18
        09:06:39","takengranularity":"0","takenunknown":"0","lastupdate":"1616500792"},"views":"128","editability":{"cancomment":0,"canaddmeta":0},"publiceditability":{"cancomment":1,"canaddmeta":0},"usage":{"candownload":1,"canblog":0,"canprint":0,"canshare":0},"comments":{"_content":"0"},"notes":{"note":[]},"people":{"haspeople":0},"tags":{"tag":[{"id":"56637856-49739448673-58228","author":"56683178@N06","authorname":"blupenny99","raw":"BNSF","_content":"bnsf","machine_tag":0},{"id":"56637856-49739448673-408384742","author":"56683178@N06","authorname":"blupenny99","raw":"Burlington
        Northern Santa Fe Rwy","_content":"burlingtonnorthernsantaferwy","machine_tag":0},{"id":"56637856-49739448673-85148","author":"56683178@N06","authorname":"blupenny99","raw":"Denver,
        CO","_content":"denverco","machine_tag":0},{"id":"56637856-49739448673-3157","author":"56683178@N06","authorname":"blupenny99","raw":"Colorado","_content":"colorado","machine_tag":0},{"id":"56637856-49739448673-8854","author":"56683178@N06","authorname":"blupenny99","raw":"Trains","_content":"trains","machine_tag":0},{"id":"56637856-49739448673-92338","author":"56683178@N06","authorname":"blupenny99","raw":"Railroads","_content":"railroads","machine_tag":0},{"id":"56637856-49739448673-1294","author":"56683178@N06","authorname":"blupenny99","raw":"Yard","_content":"yard","machine_tag":0},{"id":"56637856-49739448673-1147","author":"56683178@N06","authorname":"blupenny99","raw":"Skyline","_content":"skyline","machine_tag":0}]},"urls":{"url":[{"type":"photopage","_content":"https:\/\/www.flickr.com\/photos\/20tcb10\/49739448673\/"}]},"media":"photo"},"stat":"ok"}'
  recorded_at: Tue, 27 Apr 2021 23:12:05 GMT
recorded_with: VCR 6.0.0
